{
	"PURPOSE":{
		"field" : ["$.reasons"],
		"visible":false
	},
	"CMT":{
		"field" : ["$.description"],
		"visible":false
	},
	"VM_NM":{
		"field" : ["$..data.Hostname"],
		"order" : 0
	},
	"CPU_CNT":{
		"field"  : ["$..data.cpu"],
		"order" : 1
	},
	"RAM_SIZE":{
		"field"  : ["$..data.memory"],
		"order" : 2,
		"visible":false
	},
	"DISK_SIZE":{
		"field"  : ["$..data.storage","$..data.disks[0].data.capacity"],
		"order" : 3,
		"visible":false
	},
	"PRIVATE_IP":{
		"visible":false,
		"field"  : ["$..data['VirtualMachine.Network0.Address']"]
	},
	"GATEWAY":{
		"visible":false,
		 "field"  : ["$..data['VirtualMachine.Network0.Gateway']"]
	},
	"DNS":{
		"visible":false,
		 "field"  : ["$..data['VirtualMachine.Network0.PrimaryDNS']"]
	},
	"SUBNETMASK":{
		"visible":false,
		"field"  : ["$..data['VirtualMachine.Network0.SubnetMask']"]
	}
}